%YAML 1.1
%TAG !u! tag:unity3d.com,2011:
--- !u!29 &1
OcclusionCullingSettings:
  m_ObjectHideFlags: 0
  serializedVersion: 2
  m_OcclusionBakeSettings:
    smallestOccluder: 5
    smallestHole: 0.25
    backfaceThreshold: 100
  m_SceneGUID: 00000000000000000000000000000000
  m_OcclusionCullingData: {fileID: 0}
--- !u!104 &2
RenderSettings:
  m_ObjectHideFlags: 0
  serializedVersion: 8
  m_Fog: 0
  m_FogColor: {r: 0.5, g: 0.5, b: 0.5, a: 1}
  m_FogMode: 3
  m_FogDensity: 0.01
  m_LinearFogStart: 0
  m_LinearFogEnd: 300
  m_AmbientSkyColor: {r: 0.212, g: 0.227, b: 0.259, a: 1}
  m_AmbientEquatorColor: {r: 0.114, g: 0.125, b: 0.133, a: 1}
  m_AmbientGroundColor: {r: 0.047, g: 0.043, b: 0.035, a: 1}
  m_AmbientIntensity: 1
  m_AmbientMode: 3
  m_SubtractiveShadowColor: {r: 0.42, g: 0.478, b: 0.627, a: 1}
  m_SkyboxMaterial: {fileID: 0}
  m_HaloStrength: 0.5
  m_FlareStrength: 1
  m_FlareFadeSpeed: 3
  m_HaloTexture: {fileID: 0}
  m_SpotCookie: {fileID: 10001, guid: 0000000000000000e000000000000000, type: 0}
  m_DefaultReflectionMode: 0
  m_DefaultReflectionResolution: 128
  m_ReflectionBounces: 1
  m_ReflectionIntensity: 1
  m_CustomReflection: {fileID: 0}
  m_Sun: {fileID: 0}
  m_IndirectSpecularColor: {r: 0, g: 0, b: 0, a: 1}
--- !u!157 &3
LightmapSettings:
  m_ObjectHideFlags: 0
  serializedVersion: 11
  m_GIWorkflowMode: 1
  m_GISettings:
    serializedVersion: 2
    m_BounceScale: 1
    m_IndirectOutputScale: 1
    m_AlbedoBoost: 1
    m_TemporalCoherenceThreshold: 1
    m_EnvironmentLightingMode: 0
    m_EnableBakedLightmaps: 0
    m_EnableRealtimeLightmaps: 0
  m_LightmapEditorSettings:
    serializedVersion: 9
    m_Resolution: 2
    m_BakeResolution: 40
    m_TextureWidth: 1024
    m_TextureHeight: 1024
    m_AO: 0
    m_AOMaxDistance: 1
    m_CompAOExponent: 1
    m_CompAOExponentDirect: 0
    m_Padding: 2
    m_LightmapParameters: {fileID: 0}
    m_LightmapsBakeMode: 1
    m_TextureCompression: 1
    m_FinalGather: 0
    m_FinalGatherFiltering: 1
    m_FinalGatherRayCount: 256
    m_ReflectionCompression: 2
    m_MixedBakeMode: 2
    m_BakeBackend: 0
    m_PVRSampling: 1
    m_PVRDirectSampleCount: 32
    m_PVRSampleCount: 500
    m_PVRBounces: 2
    m_PVRFiltering: 0
    m_PVRFilteringMode: 1
    m_PVRCulling: 1
    m_PVRFilteringGaussRadiusDirect: 1
    m_PVRFilteringGaussRadiusIndirect: 5
    m_PVRFilteringGaussRadiusAO: 2
    m_PVRFilteringAtrousColorSigma: 1
    m_PVRFilteringAtrousNormalSigma: 1
    m_PVRFilteringAtrousPositionSigma: 1
  m_LightingDataAsset: {fileID: 0}
  m_UseShadowmask: 1
--- !u!196 &4
NavMeshSettings:
  serializedVersion: 2
  m_ObjectHideFlags: 0
  m_BuildSettings:
    serializedVersion: 2
    agentTypeID: 0
    agentRadius: 0.5
    agentHeight: 2
    agentSlope: 45
    agentClimb: 0.4
    ledgeDropHeight: 0
    maxJumpAcrossDistance: 0
    minRegionArea: 2
    manualCellSize: 0
    cellSize: 0.16666667
    manualTileSize: 0
    tileSize: 256
    accuratePlacement: 0
  m_NavMeshData: {fileID: 0}
--- !u!1001 &181153518
Prefab:
  m_ObjectHideFlags: 0
  serializedVersion: 2
  m_Modification:
    m_TransformParent: {fileID: 777671600}
    m_Modifications:
    - target: {fileID: 4012701076330438, guid: 89b25a1d4a2657144ae71adfa9321a70, type: 2}
      propertyPath: m_LocalPosition.x
      value: -0.00111
      objectReference: {fileID: 0}
    - target: {fileID: 4012701076330438, guid: 89b25a1d4a2657144ae71adfa9321a70, type: 2}
      propertyPath: m_LocalPosition.y
      value: -0.00028
      objectReference: {fileID: 0}
    - target: {fileID: 4012701076330438, guid: 89b25a1d4a2657144ae71adfa9321a70, type: 2}
      propertyPath: m_LocalPosition.z
      value: 0
      objectReference: {fileID: 0}
    - target: {fileID: 4012701076330438, guid: 89b25a1d4a2657144ae71adfa9321a70, type: 2}
      propertyPath: m_LocalRotation.x
      value: -0
      objectReference: {fileID: 0}
    - target: {fileID: 4012701076330438, guid: 89b25a1d4a2657144ae71adfa9321a70, type: 2}
      propertyPath: m_LocalRotation.y
      value: -0
      objectReference: {fileID: 0}
    - target: {fileID: 4012701076330438, guid: 89b25a1d4a2657144ae71adfa9321a70, type: 2}
      propertyPath: m_LocalRotation.z
      value: -0
      objectReference: {fileID: 0}
    - target: {fileID: 4012701076330438, guid: 89b25a1d4a2657144ae71adfa9321a70, type: 2}
      propertyPath: m_LocalRotation.w
      value: 1
      objectReference: {fileID: 0}
    - target: {fileID: 4012701076330438, guid: 89b25a1d4a2657144ae71adfa9321a70, type: 2}
      propertyPath: m_RootOrder
      value: 4
      objectReference: {fileID: 0}
    m_RemovedComponents: []
  m_ParentPrefab: {fileID: 100100000, guid: 89b25a1d4a2657144ae71adfa9321a70, type: 2}
  m_IsPrefabParent: 0
--- !u!1 &549232943
GameObject:
  m_ObjectHideFlags: 0
  m_PrefabParentObject: {fileID: 0}
  m_PrefabInternal: {fileID: 0}
  serializedVersion: 5
  m_Component:
  - component: {fileID: 549232944}
  - component: {fileID: 549232946}
  - component: {fileID: 549232945}
  m_Layer: 5
  m_Name: Text
  m_TagString: Untagged
  m_Icon: {fileID: 0}
  m_NavMeshLayer: 0
  m_StaticEditorFlags: 0
  m_IsActive: 1
--- !u!224 &549232944
RectTransform:
  m_ObjectHideFlags: 0
  m_PrefabParentObject: {fileID: 0}
  m_PrefabInternal: {fileID: 0}
  m_GameObject: {fileID: 549232943}
  m_LocalRotation: {x: 0, y: 0, z: 0, w: 1}
  m_LocalPosition: {x: 0, y: 0, z: 0}
  m_LocalScale: {x: 1, y: 1, z: 1}
  m_Children: []
  m_Father: {fileID: 1273781734}
  m_RootOrder: 0
  m_LocalEulerAnglesHint: {x: 0, y: 0, z: 0}
  m_AnchorMin: {x: 0.5, y: 0.5}
  m_AnchorMax: {x: 0.5, y: 0.5}
  m_AnchoredPosition: {x: 0, y: 105.9}
  m_SizeDelta: {x: 1069.8, y: 264.07}
  m_Pivot: {x: 0.5, y: 0.5}
--- !u!114 &549232945
MonoBehaviour:
  m_ObjectHideFlags: 0
  m_PrefabParentObject: {fileID: 0}
  m_PrefabInternal: {fileID: 0}
  m_GameObject: {fileID: 549232943}
  m_Enabled: 1
  m_EditorHideFlags: 0
  m_Script: {fileID: 708705254, guid: f70555f144d8491a825f0804e09c671c, type: 3}
  m_Name: 
  m_EditorClassIdentifier: 
  m_Material: {fileID: 0}
  m_Color: {r: 1, g: 1, b: 1, a: 1}
  m_RaycastTarget: 1
  m_OnCullStateChanged:
    m_PersistentCalls:
      m_Calls: []
    m_TypeName: UnityEngine.UI.MaskableGraphic+CullStateChangedEvent, UnityEngine.UI,
      Version=1.0.0.0, Culture=neutral, PublicKeyToken=null
  m_FontData:
    m_Font: {fileID: 12800000, guid: 50ae4d6f4ab52da469c0c198fba569fa, type: 3}
    m_FontSize: 87
    m_FontStyle: 0
    m_BestFit: 0
    m_MinSize: 10
    m_MaxSize: 219
    m_Alignment: 1
    m_AlignByGeometry: 0
    m_RichText: 1
    m_HorizontalOverflow: 0
    m_VerticalOverflow: 0
    m_LineSpacing: 1
  m_Text: Satellite Suicide Burn
--- !u!222 &549232946
CanvasRenderer:
  m_ObjectHideFlags: 0
  m_PrefabParentObject: {fileID: 0}
  m_PrefabInternal: {fileID: 0}
  m_GameObject: {fileID: 549232943}
--- !u!1001 &561886420
Prefab:
  m_ObjectHideFlags: 0
  serializedVersion: 2
  m_Modification:
    m_TransformParent: {fileID: 0}
    m_Modifications:
    - target: {fileID: 4572772555882460, guid: 708adbd5c5f67cf419550a7db6a6bef3, type: 2}
      propertyPath: m_LocalPosition.x
      value: 1.6
      objectReference: {fileID: 0}
    - target: {fileID: 4572772555882460, guid: 708adbd5c5f67cf419550a7db6a6bef3, type: 2}
      propertyPath: m_LocalPosition.y
      value: -3.66
      objectReference: {fileID: 0}
    - target: {fileID: 4572772555882460, guid: 708adbd5c5f67cf419550a7db6a6bef3, type: 2}
      propertyPath: m_LocalPosition.z
      value: 0
      objectReference: {fileID: 0}
    - target: {fileID: 4572772555882460, guid: 708adbd5c5f67cf419550a7db6a6bef3, type: 2}
      propertyPath: m_LocalRotation.x
      value: -0
      objectReference: {fileID: 0}
    - target: {fileID: 4572772555882460, guid: 708adbd5c5f67cf419550a7db6a6bef3, type: 2}
      propertyPath: m_LocalRotation.y
      value: 0
      objectReference: {fileID: 0}
    - target: {fileID: 4572772555882460, guid: 708adbd5c5f67cf419550a7db6a6bef3, type: 2}
      propertyPath: m_LocalRotation.z
      value: -0.8647202
      objectReference: {fileID: 0}
    - target: {fileID: 4572772555882460, guid: 708adbd5c5f67cf419550a7db6a6bef3, type: 2}
      propertyPath: m_LocalRotation.w
      value: -0.50225395
      objectReference: {fileID: 0}
    - target: {fileID: 4572772555882460, guid: 708adbd5c5f67cf419550a7db6a6bef3, type: 2}
      propertyPath: m_RootOrder
      value: 5
      objectReference: {fileID: 0}
    - target: {fileID: 1889510873501396, guid: 708adbd5c5f67cf419550a7db6a6bef3, type: 2}
      propertyPath: m_Name
      value: asteroid (1)
      objectReference: {fileID: 0}
    - target: {fileID: 4572772555882460, guid: 708adbd5c5f67cf419550a7db6a6bef3, type: 2}
      propertyPath: m_LocalEulerAnglesHint.z
      value: -43440.3
      objectReference: {fileID: 0}
    - target: {fileID: 212380884969818008, guid: 708adbd5c5f67cf419550a7db6a6bef3,
        type: 2}
      propertyPath: m_Sprite
      value: 
      objectReference: {fileID: 21300092, guid: eb1da434281590345ba8713331fabb94,
        type: 3}
    m_RemovedComponents: []
  m_ParentPrefab: {fileID: 100100000, guid: 708adbd5c5f67cf419550a7db6a6bef3, type: 2}
  m_IsPrefabParent: 0
--- !u!1001 &627791098
Prefab:
  m_ObjectHideFlags: 0
  serializedVersion: 2
  m_Modification:
    m_TransformParent: {fileID: 0}
    m_Modifications:
    - target: {fileID: 4751488937630720, guid: 34ef884f8be8fd74b8828228df0f2002, type: 2}
      propertyPath: m_LocalPosition.x
      value: 1.4
      objectReference: {fileID: 0}
    - target: {fileID: 4751488937630720, guid: 34ef884f8be8fd74b8828228df0f2002, type: 2}
      propertyPath: m_LocalPosition.y
      value: 0.15
      objectReference: {fileID: 0}
    - target: {fileID: 4751488937630720, guid: 34ef884f8be8fd74b8828228df0f2002, type: 2}
      propertyPath: m_LocalPosition.z
      value: 0
      objectReference: {fileID: 0}
    - target: {fileID: 4751488937630720, guid: 34ef884f8be8fd74b8828228df0f2002, type: 2}
      propertyPath: m_LocalRotation.x
      value: -0
      objectReference: {fileID: 0}
    - target: {fileID: 4751488937630720, guid: 34ef884f8be8fd74b8828228df0f2002, type: 2}
      propertyPath: m_LocalRotation.y
      value: -0
      objectReference: {fileID: 0}
    - target: {fileID: 4751488937630720, guid: 34ef884f8be8fd74b8828228df0f2002, type: 2}
      propertyPath: m_LocalRotation.z
      value: 0.89227116
      objectReference: {fileID: 0}
    - target: {fileID: 4751488937630720, guid: 34ef884f8be8fd74b8828228df0f2002, type: 2}
      propertyPath: m_LocalRotation.w
      value: 0.4515
      objectReference: {fileID: 0}
    - target: {fileID: 4751488937630720, guid: 34ef884f8be8fd74b8828228df0f2002, type: 2}
      propertyPath: m_RootOrder
      value: 2
      objectReference: {fileID: 0}
    - target: {fileID: 4751488937630720, guid: 34ef884f8be8fd74b8828228df0f2002, type: 2}
      propertyPath: m_LocalEulerAnglesHint.z
      value: 126.32001
      objectReference: {fileID: 0}
    - target: {fileID: 198261848091320724, guid: 34ef884f8be8fd74b8828228df0f2002,
        type: 2}
      propertyPath: prewarm
      value: 1
      objectReference: {fileID: 0}
    - target: {fileID: 198261848091320724, guid: 34ef884f8be8fd74b8828228df0f2002,
        type: 2}
      propertyPath: randomSeed
      value: -1168962486
      objectReference: {fileID: 0}
    - target: {fileID: 114090312795855808, guid: 34ef884f8be8fd74b8828228df0f2002,
        type: 2}
      propertyPath: m_Enabled
      value: 0
      objectReference: {fileID: 0}
    - target: {fileID: 198062356318377412, guid: 34ef884f8be8fd74b8828228df0f2002,
        type: 2}
      propertyPath: playOnAwake
      value: 1
      objectReference: {fileID: 0}
    - target: {fileID: 198062356318377412, guid: 34ef884f8be8fd74b8828228df0f2002,
        type: 2}
      propertyPath: randomSeed
      value: 477347426
      objectReference: {fileID: 0}
    - target: {fileID: 198640373040282294, guid: 34ef884f8be8fd74b8828228df0f2002,
        type: 2}
      propertyPath: playOnAwake
      value: 1
      objectReference: {fileID: 0}
    - target: {fileID: 198640373040282294, guid: 34ef884f8be8fd74b8828228df0f2002,
        type: 2}
      propertyPath: randomSeed
      value: -1393037075
      objectReference: {fileID: 0}
    - target: {fileID: 114242222286172564, guid: 34ef884f8be8fd74b8828228df0f2002,
        type: 2}
      propertyPath: m_Enabled
      value: 0
      objectReference: {fileID: 0}
    - target: {fileID: 114980421985211196, guid: 34ef884f8be8fd74b8828228df0f2002,
        type: 2}
      propertyPath: m_Enabled
      value: 0
      objectReference: {fileID: 0}
    m_RemovedComponents: []
  m_ParentPrefab: {fileID: 100100000, guid: 34ef884f8be8fd74b8828228df0f2002, type: 2}
  m_IsPrefabParent: 0
--- !u!1001 &684643091
Prefab:
  m_ObjectHideFlags: 0
  serializedVersion: 2
  m_Modification:
    m_TransformParent: {fileID: 0}
    m_Modifications:
    - target: {fileID: 4627187097030020, guid: 2e1d41e25f87ecf48b740e8877c61caf, type: 2}
      propertyPath: m_LocalPosition.x
      value: -5.56623
      objectReference: {fileID: 0}
    - target: {fileID: 4627187097030020, guid: 2e1d41e25f87ecf48b740e8877c61caf, type: 2}
      propertyPath: m_LocalPosition.y
      value: -3.020806
      objectReference: {fileID: 0}
    - target: {fileID: 4627187097030020, guid: 2e1d41e25f87ecf48b740e8877c61caf, type: 2}
      propertyPath: m_LocalPosition.z
      value: 0
      objectReference: {fileID: 0}
    - target: {fileID: 4627187097030020, guid: 2e1d41e25f87ecf48b740e8877c61caf, type: 2}
      propertyPath: m_LocalRotation.x
      value: 0
      objectReference: {fileID: 0}
    - target: {fileID: 4627187097030020, guid: 2e1d41e25f87ecf48b740e8877c61caf, type: 2}
      propertyPath: m_LocalRotation.y
      value: 0
      objectReference: {fileID: 0}
    - target: {fileID: 4627187097030020, guid: 2e1d41e25f87ecf48b740e8877c61caf, type: 2}
      propertyPath: m_LocalRotation.z
      value: 0
      objectReference: {fileID: 0}
    - target: {fileID: 4627187097030020, guid: 2e1d41e25f87ecf48b740e8877c61caf, type: 2}
      propertyPath: m_LocalRotation.w
      value: 1
      objectReference: {fileID: 0}
    - target: {fileID: 4627187097030020, guid: 2e1d41e25f87ecf48b740e8877c61caf, type: 2}
      propertyPath: m_RootOrder
      value: 1
      objectReference: {fileID: 0}
    m_RemovedComponents: []
  m_ParentPrefab: {fileID: 100100000, guid: 2e1d41e25f87ecf48b740e8877c61caf, type: 2}
  m_IsPrefabParent: 0
--- !u!4 &777671600 stripped
Transform:
  m_PrefabParentObject: {fileID: 4751488937630720, guid: 34ef884f8be8fd74b8828228df0f2002,
    type: 2}
  m_PrefabInternal: {fileID: 627791098}
--- !u!1001 &1012224343
Prefab:
  m_ObjectHideFlags: 0
  serializedVersion: 2
  m_Modification:
    m_TransformParent: {fileID: 0}
    m_Modifications:
    - target: {fileID: 4572772555882460, guid: 708adbd5c5f67cf419550a7db6a6bef3, type: 2}
      propertyPath: m_LocalPosition.x
      value: -5.95
      objectReference: {fileID: 0}
    - target: {fileID: 4572772555882460, guid: 708adbd5c5f67cf419550a7db6a6bef3, type: 2}
      propertyPath: m_LocalPosition.y
      value: 1.24
      objectReference: {fileID: 0}
    - target: {fileID: 4572772555882460, guid: 708adbd5c5f67cf419550a7db6a6bef3, type: 2}
      propertyPath: m_LocalPosition.z
      value: 0
      objectReference: {fileID: 0}
    - target: {fileID: 4572772555882460, guid: 708adbd5c5f67cf419550a7db6a6bef3, type: 2}
      propertyPath: m_LocalRotation.x
      value: 0
      objectReference: {fileID: 0}
    - target: {fileID: 4572772555882460, guid: 708adbd5c5f67cf419550a7db6a6bef3, type: 2}
      propertyPath: m_LocalRotation.y
      value: 0
      objectReference: {fileID: 0}
    - target: {fileID: 4572772555882460, guid: 708adbd5c5f67cf419550a7db6a6bef3, type: 2}
      propertyPath: m_LocalRotation.z
      value: 0.9948984
      objectReference: {fileID: 0}
    - target: {fileID: 4572772555882460, guid: 708adbd5c5f67cf419550a7db6a6bef3, type: 2}
      propertyPath: m_LocalRotation.w
      value: 0.100882076
      objectReference: {fileID: 0}
    - target: {fileID: 4572772555882460, guid: 708adbd5c5f67cf419550a7db6a6bef3, type: 2}
      propertyPath: m_RootOrder
      value: 3
      objectReference: {fileID: 0}
    - target: {fileID: 4572772555882460, guid: 708adbd5c5f67cf419550a7db6a6bef3, type: 2}
      propertyPath: m_LocalEulerAnglesHint.z
      value: -1991.58
      objectReference: {fileID: 0}
    - target: {fileID: 212380884969818008, guid: 708adbd5c5f67cf419550a7db6a6bef3,
        type: 2}
      propertyPath: m_Sprite
      value: 
      objectReference: {fileID: 21300066, guid: eb1da434281590345ba8713331fabb94,
        type: 3}
    m_RemovedComponents: []
  m_ParentPrefab: {fileID: 100100000, guid: 708adbd5c5f67cf419550a7db6a6bef3, type: 2}
  m_IsPrefabParent: 0
--- !u!1 &1130349063
GameObject:
  m_ObjectHideFlags: 0
  m_PrefabParentObject: {fileID: 0}
  m_PrefabInternal: {fileID: 0}
  serializedVersion: 5
  m_Component:
  - component: {fileID: 1130349065}
  - component: {fileID: 1130349064}
  m_Layer: 0
  m_Name: SpaceBackground
  m_TagString: Untagged
  m_Icon: {fileID: 0}
  m_NavMeshLayer: 0
  m_StaticEditorFlags: 0
  m_IsActive: 1
--- !u!212 &1130349064
SpriteRenderer:
  m_ObjectHideFlags: 0
  m_PrefabParentObject: {fileID: 0}
  m_PrefabInternal: {fileID: 0}
  m_GameObject: {fileID: 1130349063}
  m_Enabled: 1
  m_CastShadows: 0
  m_ReceiveShadows: 0
  m_MotionVectors: 1
  m_LightProbeUsage: 1
  m_ReflectionProbeUsage: 1
  m_Materials:
  - {fileID: 10754, guid: 0000000000000000f000000000000000, type: 0}
  m_StaticBatchInfo:
    firstSubMesh: 0
    subMeshCount: 0
  m_StaticBatchRoot: {fileID: 0}
  m_ProbeAnchor: {fileID: 0}
  m_LightProbeVolumeOverride: {fileID: 0}
  m_ScaleInLightmap: 1
  m_PreserveUVs: 0
  m_IgnoreNormalsForChartDetection: 0
  m_ImportantGI: 0
  m_SelectedEditorRenderState: 0
  m_MinimumChartSize: 4
  m_AutoUVMaxDistance: 0.5
  m_AutoUVMaxAngle: 89
  m_LightmapParameters: {fileID: 0}
  m_SortingLayerID: 0
  m_SortingLayer: 0
  m_SortingOrder: -1
  m_Sprite: {fileID: 21300000, guid: 012d475346569244cbea5774267aa5ab, type: 3}
  m_Color: {r: 1, g: 1, b: 1, a: 1}
  m_FlipX: 0
  m_FlipY: 0
  m_DrawMode: 0
  m_Size: {x: 24, y: 15}
  m_AdaptiveModeThreshold: 0.5
  m_SpriteTileMode: 0
  m_WasSpriteAssigned: 1
  m_MaskInteraction: 0
--- !u!4 &1130349065
Transform:
  m_ObjectHideFlags: 0
  m_PrefabParentObject: {fileID: 0}
  m_PrefabInternal: {fileID: 0}
  m_GameObject: {fileID: 1130349063}
  m_LocalRotation: {x: 0, y: 0, z: 0, w: 1}
  m_LocalPosition: {x: 0, y: 0, z: 0}
  m_LocalScale: {x: 1, y: 1, z: 1}
  m_Children: []
  m_Father: {fileID: 0}
  m_RootOrder: 4
  m_LocalEulerAnglesHint: {x: 0, y: 0, z: 0}
--- !u!1 &1270187457
GameObject:
  m_ObjectHideFlags: 0
  m_PrefabParentObject: {fileID: 0}
  m_PrefabInternal: {fileID: 0}
  serializedVersion: 5
  m_Component:
  - component: {fileID: 1270187462}
  - component: {fileID: 1270187461}
  - component: {fileID: 1270187460}
  - component: {fileID: 1270187459}
  - component: {fileID: 1270187458}
  m_Layer: 0
  m_Name: Main Camera
  m_TagString: MainCamera
  m_Icon: {fileID: 0}
  m_NavMeshLayer: 0
  m_StaticEditorFlags: 0
  m_IsActive: 1
--- !u!81 &1270187458
AudioListener:
  m_ObjectHideFlags: 0
  m_PrefabParentObject: {fileID: 0}
  m_PrefabInternal: {fileID: 0}
  m_GameObject: {fileID: 1270187457}
  m_Enabled: 1
--- !u!124 &1270187459
Behaviour:
  m_ObjectHideFlags: 0
  m_PrefabParentObject: {fileID: 0}
  m_PrefabInternal: {fileID: 0}
  m_GameObject: {fileID: 1270187457}
  m_Enabled: 1
--- !u!92 &1270187460
Behaviour:
  m_ObjectHideFlags: 0
  m_PrefabParentObject: {fileID: 0}
  m_PrefabInternal: {fileID: 0}
  m_GameObject: {fileID: 1270187457}
  m_Enabled: 1
--- !u!20 &1270187461
Camera:
  m_ObjectHideFlags: 0
  m_PrefabParentObject: {fileID: 0}
  m_PrefabInternal: {fileID: 0}
  m_GameObject: {fileID: 1270187457}
  m_Enabled: 1
  serializedVersion: 2
  m_ClearFlags: 1
  m_BackGroundColor: {r: 0.19215687, g: 0.3019608, b: 0.4745098, a: 0}
  m_NormalizedViewPortRect:
    serializedVersion: 2
    x: 0
    y: 0
    width: 1
    height: 1
  near clip plane: 0.3
  far clip plane: 1000
  field of view: 60
  orthographic: 1
  orthographic size: 5
  m_Depth: -1
  m_CullingMask:
    serializedVersion: 2
    m_Bits: 4294967295
  m_RenderingPath: -1
  m_TargetTexture: {fileID: 0}
  m_TargetDisplay: 0
  m_TargetEye: 3
  m_HDR: 1
  m_AllowMSAA: 1
  m_ForceIntoRT: 0
  m_OcclusionCulling: 1
  m_StereoConvergence: 10
  m_StereoSeparation: 0.022
  m_StereoMirrorMode: 0
--- !u!4 &1270187462
Transform:
  m_ObjectHideFlags: 0
  m_PrefabParentObject: {fileID: 0}
  m_PrefabInternal: {fileID: 0}
  m_GameObject: {fileID: 1270187457}
  m_LocalRotation: {x: 0, y: 0, z: 0, w: 1}
  m_LocalPosition: {x: 0, y: 0, z: -10}
  m_LocalScale: {x: 1, y: 1, z: 1}
  m_Children: []
  m_Father: {fileID: 0}
  m_RootOrder: 0
  m_LocalEulerAnglesHint: {x: 0, y: 0, z: 0}
--- !u!1 &1273781730
GameObject:
  m_ObjectHideFlags: 0
  m_PrefabParentObject: {fileID: 0}
  m_PrefabInternal: {fileID: 0}
  serializedVersion: 5
  m_Component:
  - component: {fileID: 1273781734}
  - component: {fileID: 1273781733}
  - component: {fileID: 1273781732}
  - component: {fileID: 1273781731}
  m_Layer: 5
  m_Name: Canvas
  m_TagString: Untagged
  m_Icon: {fileID: 0}
  m_NavMeshLayer: 0
  m_StaticEditorFlags: 0
  m_IsActive: 1
--- !u!114 &1273781731
MonoBehaviour:
  m_ObjectHideFlags: 0
  m_PrefabParentObject: {fileID: 0}
  m_PrefabInternal: {fileID: 0}
  m_GameObject: {fileID: 1273781730}
  m_Enabled: 1
  m_EditorHideFlags: 0
  m_Script: {fileID: 1301386320, guid: f70555f144d8491a825f0804e09c671c, type: 3}
  m_Name: 
  m_EditorClassIdentifier: 
  m_IgnoreReversedGraphics: 1
  m_BlockingObjects: 0
  m_BlockingMask:
    serializedVersion: 2
    m_Bits: 4294967295
--- !u!114 &1273781732
MonoBehaviour:
  m_ObjectHideFlags: 0
  m_PrefabParentObject: {fileID: 0}
  m_PrefabInternal: {fileID: 0}
  m_GameObject: {fileID: 1273781730}
  m_Enabled: 1
  m_EditorHideFlags: 0
  m_Script: {fileID: 1980459831, guid: f70555f144d8491a825f0804e09c671c, type: 3}
  m_Name: 
  m_EditorClassIdentifier: 
  m_UiScaleMode: 0
  m_ReferencePixelsPerUnit: 100
  m_ScaleFactor: 1
  m_ReferenceResolution: {x: 800, y: 600}
  m_ScreenMatchMode: 0
  m_MatchWidthOrHeight: 0
  m_PhysicalUnit: 3
  m_FallbackScreenDPI: 96
  m_DefaultSpriteDPI: 96
  m_DynamicPixelsPerUnit: 1
--- !u!223 &1273781733
Canvas:
  m_ObjectHideFlags: 0
  m_PrefabParentObject: {fileID: 0}
  m_PrefabInternal: {fileID: 0}
  m_GameObject: {fileID: 1273781730}
  m_Enabled: 1
  serializedVersion: 3
  m_RenderMode: 0
  m_Camera: {fileID: 0}
  m_PlaneDistance: 100
  m_PixelPerfect: 0
  m_ReceivesEvents: 1
  m_OverrideSorting: 0
  m_OverridePixelPerfect: 0
  m_SortingBucketNormalizedSize: 0
  m_AdditionalShaderChannelsFlag: 0
  m_SortingLayerID: 0
  m_SortingOrder: 0
  m_TargetDisplay: 0
--- !u!224 &1273781734
RectTransform:
  m_ObjectHideFlags: 0
  m_PrefabParentObject: {fileID: 0}
  m_PrefabInternal: {fileID: 0}
  m_GameObject: {fileID: 1273781730}
  m_LocalRotation: {x: 0, y: 0, z: 0, w: 1}
  m_LocalPosition: {x: 0, y: 0, z: 0}
  m_LocalScale: {x: 0, y: 0, z: 0}
  m_Children:
  - {fileID: 549232944}
  m_Father: {fileID: 0}
  m_RootOrder: 8
  m_LocalEulerAnglesHint: {x: 0, y: 0, z: 0}
  m_AnchorMin: {x: 0, y: 0}
  m_AnchorMax: {x: 0, y: 0}
  m_AnchoredPosition: {x: 0, y: 0}
  m_SizeDelta: {x: 0, y: 0}
  m_Pivot: {x: 0, y: 0}
--- !u!1 &1426401233
GameObject:
  m_ObjectHideFlags: 0
  m_PrefabParentObject: {fileID: 0}
  m_PrefabInternal: {fileID: 0}
  serializedVersion: 5
  m_Component:
  - component: {fileID: 1426401235}
  - component: {fileID: 1426401234}
  m_Layer: 0
  m_Name: Asteroid spritemap
  m_TagString: AsteroidSpriteHandler
  m_Icon: {fileID: 0}
  m_NavMeshLayer: 0
  m_StaticEditorFlags: 0
  m_IsActive: 1
--- !u!114 &1426401234
MonoBehaviour:
  m_ObjectHideFlags: 0
  m_PrefabParentObject: {fileID: 0}
  m_PrefabInternal: {fileID: 0}
  m_GameObject: {fileID: 1426401233}
  m_Enabled: 1
  m_EditorHideFlags: 0
  m_Script: {fileID: 11500000, guid: 5758d9243db6bd4449524524e4f40136, type: 3}
  m_Name: 
  m_EditorClassIdentifier: 
--- !u!4 &1426401235
Transform:
  m_ObjectHideFlags: 0
  m_PrefabParentObject: {fileID: 0}
  m_PrefabInternal: {fileID: 0}
  m_GameObject: {fileID: 1426401233}
  m_LocalRotation: {x: 0, y: 0, z: 0, w: 1}
  m_LocalPosition: {x: -4.2905655, y: -0.20620927, z: 0}
  m_LocalScale: {x: 1, y: 1, z: 1}
  m_Children: []
  m_Father: {fileID: 0}
  m_RootOrder: 7
  m_LocalEulerAnglesHint: {x: 0, y: 0, z: 0}
--- !u!1 &1434011974
GameObject:
  m_ObjectHideFlags: 0
  m_PrefabParentObject: {fileID: 0}
  m_PrefabInternal: {fileID: 0}
  serializedVersion: 5
  m_Component:
  - component: {fileID: 1434011977}
  - component: {fileID: 1434011976}
  - component: {fileID: 1434011975}
  m_Layer: 0
  m_Name: EventSystem
  m_TagString: Untagged
  m_Icon: {fileID: 0}
  m_NavMeshLayer: 0
  m_StaticEditorFlags: 0
  m_IsActive: 1
--- !u!114 &1434011975
MonoBehaviour:
  m_ObjectHideFlags: 0
  m_PrefabParentObject: {fileID: 0}
  m_PrefabInternal: {fileID: 0}
  m_GameObject: {fileID: 1434011974}
  m_Enabled: 1
  m_EditorHideFlags: 0
  m_Script: {fileID: 1077351063, guid: f70555f144d8491a825f0804e09c671c, type: 3}
  m_Name: 
  m_EditorClassIdentifier: 
  m_HorizontalAxis: Horizontal
  m_VerticalAxis: Vertical
  m_SubmitButton: Submit
  m_CancelButton: Cancel
  m_InputActionsPerSecond: 10
  m_RepeatDelay: 0.5
  m_ForceModuleActive: 0
--- !u!114 &1434011976
MonoBehaviour:
  m_ObjectHideFlags: 0
  m_PrefabParentObject: {fileID: 0}
  m_PrefabInternal: {fileID: 0}
  m_GameObject: {fileID: 1434011974}
  m_Enabled: 1
  m_EditorHideFlags: 0
  m_Script: {fileID: -619905303, guid: f70555f144d8491a825f0804e09c671c, type: 3}
  m_Name: 
  m_EditorClassIdentifier: 
  m_FirstSelected: {fileID: 0}
  m_sendNavigationEvents: 1
  m_DragThreshold: 5
--- !u!4 &1434011977
Transform:
  m_ObjectHideFlags: 0
  m_PrefabParentObject: {fileID: 0}
  m_PrefabInternal: {fileID: 0}
  m_GameObject: {fileID: 1434011974}
  m_LocalRotation: {x: 0, y: 0, z: 0, w: 1}
  m_LocalPosition: {x: 0, y: 0, z: 0}
  m_LocalScale: {x: 1, y: 1, z: 1}
  m_Children: []
  m_Father: {fileID: 0}
  m_RootOrder: 9
  m_LocalEulerAnglesHint: {x: 0, y: 0, z: 0}
--- !u!1001 &1469337571
Prefab:
  m_ObjectHideFlags: 0
  serializedVersion: 2
  m_Modification:
    m_TransformParent: {fileID: 0}
    m_Modifications:
    - target: {fileID: 4572772555882460, guid: 708adbd5c5f67cf419550a7db6a6bef3, type: 2}
      propertyPath: m_LocalPosition.x
      value: 4.94
      objectReference: {fileID: 0}
    - target: {fileID: 4572772555882460, guid: 708adbd5c5f67cf419550a7db6a6bef3, type: 2}
      propertyPath: m_LocalPosition.y
      value: -0.55
      objectReference: {fileID: 0}
    - target: {fileID: 4572772555882460, guid: 708adbd5c5f67cf419550a7db6a6bef3, type: 2}
      propertyPath: m_LocalPosition.z
      value: 0
      objectReference: {fileID: 0}
    - target: {fileID: 4572772555882460, guid: 708adbd5c5f67cf419550a7db6a6bef3, type: 2}
      propertyPath: m_LocalRotation.x
      value: 0
      objectReference: {fileID: 0}
    - target: {fileID: 4572772555882460, guid: 708adbd5c5f67cf419550a7db6a6bef3, type: 2}
      propertyPath: m_LocalRotation.y
      value: 0
      objectReference: {fileID: 0}
    - target: {fileID: 4572772555882460, guid: 708adbd5c5f67cf419550a7db6a6bef3, type: 2}
      propertyPath: m_LocalRotation.z
      value: -0.86145025
      objectReference: {fileID: 0}
    - target: {fileID: 4572772555882460, guid: 708adbd5c5f67cf419550a7db6a6bef3, type: 2}
      propertyPath: m_LocalRotation.w
      value: 0.50784206
      objectReference: {fileID: 0}
    - target: {fileID: 4572772555882460, guid: 708adbd5c5f67cf419550a7db6a6bef3, type: 2}
      propertyPath: m_RootOrder
      value: 6
      objectReference: {fileID: 0}
    - target: {fileID: 1889510873501396, guid: 708adbd5c5f67cf419550a7db6a6bef3, type: 2}
      propertyPath: m_Name
      value: asteroid (2)
      objectReference: {fileID: 0}
    - target: {fileID: 4572772555882460, guid: 708adbd5c5f67cf419550a7db6a6bef3, type: 2}
      propertyPath: m_LocalEulerAnglesHint.z
      value: -2998.96
      objectReference: {fileID: 0}
    - target: {fileID: 212380884969818008, guid: 708adbd5c5f67cf419550a7db6a6bef3,
        type: 2}
      propertyPath: m_Sprite
      value: 
      objectReference: {fileID: 21300044, guid: eb1da434281590345ba8713331fabb94,
        type: 3}
    m_RemovedComponents: []
  m_ParentPrefab: {fileID: 100100000, guid: 708adbd5c5f67cf419550a7db6a6bef3, type: 2}
  m_IsPrefabParent: 0
